%YAML 1.1
%TAG !u! tag:unity3d.com,2011:
--- !u!1 &7130425740929759546
GameObject:
  m_ObjectHideFlags: 0
  m_CorrespondingSourceObject: {fileID: 0}
  m_PrefabInstance: {fileID: 0}
  m_PrefabAsset: {fileID: 0}
  serializedVersion: 6
  m_Component:
  - component: {fileID: 7249109236267343445}
  - component: {fileID: 2729438254969448078}
  - component: {fileID: 247121351573491905}
  - component: {fileID: 8826096080147507912}
  m_Layer: 0
  m_Name: Visual Effect
  m_TagString: Untagged
  m_Icon: {fileID: 0}
  m_NavMeshLayer: 0
  m_StaticEditorFlags: 0
  m_IsActive: 1
--- !u!4 &7249109236267343445
Transform:
  m_ObjectHideFlags: 0
  m_CorrespondingSourceObject: {fileID: 0}
  m_PrefabInstance: {fileID: 0}
  m_PrefabAsset: {fileID: 0}
  m_GameObject: {fileID: 7130425740929759546}
  serializedVersion: 2
  m_LocalRotation: {x: -0, y: -0, z: -0, w: 1}
  m_LocalPosition: {x: 0, y: 0, z: 0}
  m_LocalScale: {x: 1, y: 1, z: 1}
  m_ConstrainProportionsScale: 0
  m_Children: []
  m_Father: {fileID: 0}
  m_LocalEulerAnglesHint: {x: 0, y: 0, z: 0}
--- !u!2083052967 &2729438254969448078
VisualEffect:
  m_ObjectHideFlags: 0
  m_CorrespondingSourceObject: {fileID: 0}
  m_PrefabInstance: {fileID: 0}
  m_PrefabAsset: {fileID: 0}
  m_GameObject: {fileID: 7130425740929759546}
  m_Enabled: 1
  m_Asset: {fileID: 8926484042661614526, guid: 4e9a8abc7a27e4c12ae3ba8f9a5446a6, type: 3}
  m_InitialEventName: OnPlay
  m_InitialEventNameOverriden: 0
  m_StartSeed: 0
  m_ResetSeedOnPlay: 1
  m_AllowInstancing: 1
  m_ResourceVersion: 1
  m_PropertySheet:
    m_Float:
      m_Array:
      - m_Value: 0.2
        m_Name: HandDistance
        m_Overridden: 1
      - m_Value: 1
        m_Name: PinchWaftVelocityMultiplier
        m_Overridden: 1
    m_Vector2f:
      m_Array: []
    m_Vector3f:
      m_Array:
      - m_Value: {x: 0, y: 0, z: 0}
        m_Name: SpawnPos_position
        m_Overridden: 1
      - m_Value: {x: 0, y: 0, z: 1}
        m_Name: SpawnDirection
        m_Overridden: 1
      - m_Value: {x: 0, y: 0, z: 0}
        m_Name: SpawnPos
        m_Overridden: 1
      - m_Value: {x: 0, y: 0, z: 0}
        m_Name: SpawnPosR
        m_Overridden: 1
      - m_Value: {x: 0, y: 0, z: 0}
        m_Name: SpawnDirectionR
        m_Overridden: 1
      - m_Value: {x: 0, y: 0, z: 0}
        m_Name: SpawnPosL
        m_Overridden: 1
      - m_Value: {x: 0, y: 0, z: 0}
        m_Name: SpawnDirectionL
        m_Overridden: 1
      - m_Value: {x: 0, y: 0, z: 0}
        m_Name: LeftHandPos
        m_Overridden: 1
      - m_Value: {x: 0, y: 0, z: 0}
        m_Name: LeftHandPrevPos
        m_Overridden: 1
      - m_Value: {x: 0, y: 0, z: 0}
        m_Name: RightHandPos
        m_Overridden: 1
      - m_Value: {x: 0, y: 0, z: 0}
        m_Name: RightHandPrevPos
        m_Overridden: 1
    m_Vector4f:
      m_Array: []
    m_Uint:
      m_Array: []
    m_Int:
      m_Array: []
    m_Matrix4x4f:
      m_Array: []
    m_AnimationCurve:
      m_Array:
      - m_Value:
          serializedVersion: 2
          m_Curve:
          - serializedVersion: 3
            time: 0
            value: 0
            inSlope: 6.02619
            outSlope: 6.02619
            tangentMode: 0
            weightedMode: 0
            inWeight: 0
            outWeight: 0.043042433
          - serializedVersion: 3
            time: 0.51158965
            value: 0.9949262
            inSlope: -0.11083408
            outSlope: -0.11083408
            tangentMode: 0
            weightedMode: 0
            inWeight: 0.3309737
            outWeight: 0.17459896
          - serializedVersion: 3
            time: 0.9980522
            value: 0.00747405
            inSlope: 0
            outSlope: 0
            tangentMode: 0
            weightedMode: 0
            inWeight: 0
            outWeight: 0
          m_PreInfinity: 2
          m_PostInfinity: 2
          m_RotationOrder: 4
        m_Name: AttractionCurve
        m_Overridden: 1
      - m_Value:
          serializedVersion: 2
          m_Curve:
          - serializedVersion: 3
            time: 0
            value: 1
            inSlope: -3.073246
            outSlope: -3.073246
            tangentMode: 0
            weightedMode: 0
            inWeight: 0
            outWeight: 0.028764807
          - serializedVersion: 3
            time: 1.0010659
            value: 0
            inSlope: 0
            outSlope: 0
            tangentMode: 0
            weightedMode: 0
            inWeight: 0.07783414
            outWeight: 0
          m_PreInfinity: 2
          m_PostInfinity: 2
          m_RotationOrder: 4
        m_Name: RepelCurve
        m_Overridden: 1
    m_Gradient:
      m_Array: []
    m_NamedObject:
      m_Array: []
    m_Bool:
      m_Array:
      - m_Value: 0
        m_Name: Spawn
        m_Overridden: 1
      - m_Value: 0
        m_Name: SpawnR
        m_Overridden: 1
      - m_Value: 0
        m_Name: SpawnL
        m_Overridden: 1
      - m_Value: 0
        m_Name: isPinchingLeft
        m_Overridden: 1
      - m_Value: 0
        m_Name: isPinchingRight
        m_Overridden: 1
      - m_Value: 0
        m_Name: Clapped
        m_Overridden: 1
--- !u!73398921 &247121351573491905
VFXRenderer:
  serializedVersion: 1
  m_ObjectHideFlags: 0
  m_CorrespondingSourceObject: {fileID: 0}
  m_PrefabInstance: {fileID: 0}
  m_PrefabAsset: {fileID: 0}
  m_GameObject: {fileID: 7130425740929759546}
  m_Enabled: 1
  m_CastShadows: 0
  m_ReceiveShadows: 0
  m_DynamicOccludee: 1
  m_StaticShadowCaster: 0
  m_MotionVectors: 0
  m_LightProbeUsage: 0
  m_ReflectionProbeUsage: 0
  m_RayTracingMode: 0
  m_RayTraceProcedural: 0
  m_RenderingLayerMask: 1
  m_RendererPriority: 0
  m_StaticBatchInfo:
    firstSubMesh: 0
    subMeshCount: 0
  m_StaticBatchRoot: {fileID: 0}
  m_ProbeAnchor: {fileID: 0}
  m_LightProbeVolumeOverride: {fileID: 0}
  m_ScaleInLightmap: 1
  m_ReceiveGI: 1
  m_PreserveUVs: 0
  m_IgnoreNormalsForChartDetection: 0
  m_ImportantGI: 0
  m_StitchLightmapSeams: 1
  m_SelectedEditorRenderState: 3
  m_MinimumChartSize: 4
  m_AutoUVMaxDistance: 0.5
  m_AutoUVMaxAngle: 89
  m_LightmapParameters: {fileID: 0}
  m_SortingLayerID: 0
  m_SortingLayer: 0
  m_SortingOrder: 0
--- !u!114 &8826096080147507912
MonoBehaviour:
  m_ObjectHideFlags: 0
  m_CorrespondingSourceObject: {fileID: 0}
  m_PrefabInstance: {fileID: 0}
  m_PrefabAsset: {fileID: 0}
  m_GameObject: {fileID: 7130425740929759546}
  m_Enabled: 1
  m_EditorHideFlags: 0
  m_Script: {fileID: 11500000, guid: 7fbab08ccc1c24c9daed974f46c77554, type: 3}
  m_Name: 
  m_EditorClassIdentifier: 
  provider: {fileID: 0}
  visualEffect: {fileID: 0}
